Analyzing R-loop data with RLSeq • RLSeq
…
# Perform test
rlr <- featureEnrich(
  object = rlr,
  quiet = TRUE
)

The results:

# View Top Results
annoResS96 <- rlresult(rlr, "featureEnrichment")
annoResS96 %>%
  relocate(contains("fisher"), .after = type) %>%
  arrange(desc(stat_fisher_rl))

## # A tibble: 50 × 13
##    db      type  stat_fisher_rl stat_fisher_shuf pval_fisher_rl pval_fisher_shuf
##    <chr>   <chr>          <dbl>            <dbl>          <dbl>            <dbl>
##  1 Repeat… SINE          Inf               1.01       4.51e-129           0.973 
##  2 Transc… Intr…         Inf               0.995      2.23e-308           0.801 
##  3 Transc… Exon           20.9             1.04       2.23e-308           0.166 
##  4 Transc… TTS            16.3             1.05       2.23e-308           0.180 
##  5 Transc… TSS            15.6             1.06       2.23e-308           0.161 
##  6 Encode… enhP           11.9             1.09       2.23e-308           0.0234
##  7 knownG… prot…          11.7             1.03       2.23e-308           0.152 
##  8 snoRNA… CDBox          11.1             0.880      5.98e- 10           1     
##  9 PolyA   poly…           9.83            1.18       2.23e-308           0.0147
## 10 Transc… thre…           9.43            1.05       2.23e-308           0.460 
## # … with 40 more rows, and 7 more variables: num_tested_peaks <int>,
## #   num_total_peaks <int>, num_tested_anno_ranges <int>,
## #   num_total_anno_ranges <int>, avg_reldist_rl <dbl>, avg_reldist_shuf <dbl>,
## #   pval_reldist <dbl>
…
# Perform test
rlrRNH <- featureEnrich(
  object = rlrRNH,
  quiet = TRUE
)

The results:

# View Top Results
annoResRNH <- rlresult(rlrRNH, "featureEnrichment")
annoResRNH %>%
  relocate(contains("fisher"), .after = type) %>%
  arrange(desc(stat_fisher_rl)) 

## # A tibble: 50 × 13
##    db             type  stat_fisher_rl stat_fisher_shuf pval_fisher_rl pval_fisher_shuf
##    <chr>          <chr>          <dbl>            <dbl>          <dbl>            <dbl>
##  1 Repeat_Masker  rRNA           12.7             0          6.09e-  5           1     
##  2 Repeat_Masker  tRNA           12.2             0          2.13e-  3           1     
##  3 Repeat_Masker  Retr…          11.9             0          8.47e- 18           1     
##  4 Repeat_Masker  Simp…          11.1             1.29       2.23e-308           0.0912
##  5 knownGene_RNAs rRNA…          10.9             0          1.50e-  2           1     
##  6 Encode_CREs    K4m3            8.05            0.709      5.22e- 48           0.347 
##  7 skewr          C_SK…           7.78            0.796      7.18e- 80           0.444 
##  8 skewr          G_SK…           7.36            1.14       3.16e- 76           0.510 
##  9 Repeat_Masker  Sate…           4.75            0.697      3.51e- 49           0.445 
## 10 Repeat_Masker  srpR…           3.82            0          2.31e-  1           1     
## # … with 40 more rows, and 7 more variables: num_tested_peaks <int>,
## #   num_total_peaks <int>, num_tested_anno_ranges <int>,
## #   num_total_anno_ranges <int>, avg_reldist_rl <dbl>, avg_reldist_shuf <dbl>,
## #   pval_reldist <dbl>
…
