Analyzing R-loop data with RLSeq • RLSeq
…
# Perform test
rlr <- featureEnrich(
  object = rlr,
  quiet = TRUE
)

The results:

# View Top Results
annoResS96 <- rlresult(rlr, "featureEnrichment")
annoResS96 %>%
  relocate(contains("fisher"), .after = type) %>%
  arrange(desc(stat_fisher_rl))

## # A tibble: 50 × 13
##    db    type  stat_…¹ stat_…² pval_fi…³ pval_…⁴ num_t…⁵ num_t…⁶ num_t…⁷ num_t…⁸
##    <chr> <chr>   <dbl>   <dbl>     <dbl>   <dbl>   <int>   <int>   <int>   <int>
##  1 Repe… SINE    Inf     0.782 3.76e-149 1.23e-4  249060   10000    2425  374938
##  2 Tran… Intr…   Inf     1.01  2.23e-308 7.92e-1  171203   10000    9982  369079
##  3 Tran… Exon     18.9   0.988 2.23e-308 6.80e-1  306832   10000    9993  600737
##  4 Tran… TSS      15.2   1.04  2.23e-308 3.12e-1  175561   10000    9993  189019
##  5 Tran… TTS      14.3   1.03  2.23e-308 3.94e-1  175710   10000    9993  188948
##  6 snoR… CDBox    13.0   0     3.48e- 12 6.34e-1     269   10000    9874     269
##  7 know… prot…    12.3   1.01  2.23e-308 7.65e-1   16644   10000    9980   85306
##  8 Enco… enhP     11.7   1.15  2.23e-308 3.91e-4  141386   10000    9980  141830
##  9 snoR… miRNA    10.4   1.03  1.06e- 51 8.56e-1    1859   10000    9980    1918
## 10 know… miRNA    10.3   1.05  2.81e- 50 8.54e-1    1824   10000    9980    1881
## # … with 40 more rows, 3 more variables: avg_reldist_rl <dbl>,
## #   avg_reldist_shuf <dbl>, pval_reldist <dbl>, and abbreviated variable names
## #   ¹​stat_fisher_rl, ²​stat_fisher_shuf, ³​pval_fisher_rl, ⁴​pval_fisher_shuf,
## #   ⁵​num_tested_peaks, ⁶​num_total_peaks, ⁷​num_tested_anno_ranges,
## #   ⁸​num_total_anno_ranges
## # ℹ Use `print(n = ...)` to see more rows, and `colnames()` to see all variable names
…
