Auxiliary Data — auxdata • RLSeq
…
#>  9 G4Qpred             #007AB8
#> 10 knownGene_RNAs      #006CC4
#> 11 Microsatellite      #6F7100
#> 12 PolyA               #0082A6
#> 13 RBP_ChIP            #A95300
#> 14 RBP_eCLiP           #6A5AC7
#> 15 Repeat_Masker       #007E00
#> 16 skewr               #4D7800
#> 17 snoRNA_miRNA_scaRNA #008650
#> 18 Splice_Events       #BA2C9A
#> 19 Transcript_Features #00831F
#> 20 tRNAs               #008872
#> 
#> $annotypes
#> # A tibble: 638 × 2
#>    db          type       
#>    <chr>       <chr>      
#>  1 Centromeres Centromeres
#>  2 CNA         0          
#>  3 CNA         1          
#>  4 CNA         2          
#>  5 CNA         3          
#>  6 CNA         4          
#>  7 Cohesin     STAG1      
#>  8 Cohesin     STAG2      
#>  9 CpG_Islands CpG_Islands
#> 10 Encode_CREs CTCF       
#> # … with 628 more rows
#> # ℹ Use `print(n = ...)` to see more rows
#> 
#> $rlbps
#> # A tibble: 788 × 5
#>    geneName NADEL.2015 WANG.2018 CRISTINI.2018 combinedScore
#>    <chr>         <dbl>     <dbl>         <dbl>         <dbl>
#>  1 DDX21          0.9     0              0.968          1.87
#>  2 DHX9           0.85    0.0635         0.831          1.74
#>  3 HNRNPR         1       0              0.731          1.73
#>  4 ILF3           0.85    0.0708         0.749          1.67
#>  5 NKRF           0       1              0.636          1.64
#>  6 PDCD11         0       1              0.633          1.63
#>  7 PWP1           0       1              0.620          1.62
#>  8 SRPK1          0       1              0.457          1.46
#>  9 PWP2           0       0.960          0.472          1.43
#> 10 NPM3           0       1              0.397          1.40
#> # … with 778 more rows
#> # ℹ Use `print(n = ...)` to see more rows
…
